<svg width="22" height="22" viewBox="0 0 22 22" fill="none" xmlns="http://www.w3.org/2000/svg">
<path d="M18.9804 6.41638H18.3768C18.387 6.27064 18.387 6.12215 18.3768 5.9764C18.3768 2.69305 15.4211 0.0238323 11.7575 0H10.2434C6.56749 0.00458313 3.58832 2.6738 3.5832 5.96724C3.57297 6.11298 3.57297 6.26056 3.5832 6.40722H3.02052C1.32529 6.43105 -0.0272072 7.68133 0.000415694 9.19926C0.00143876 9.26709 0.0055321 9.33584 0.0126936 9.40367L1.24037 19.5791C1.42759 20.9687 2.74838 22.0082 4.30958 22H17.7425C19.2842 21.9871 20.5764 20.9504 20.7605 19.5791L21.9882 9.40367C22.1355 7.89032 20.8853 6.55846 19.1962 6.42555C19.1257 6.42005 19.053 6.4173 18.9804 6.41638ZM6.90919 2.99737C7.78494 2.2054 8.97785 1.75901 10.2239 1.75901H11.7371C14.3275 1.76542 16.4278 3.64634 16.4329 5.96724C16.4432 6.11298 16.4432 6.26056 16.4329 6.40722H5.57819C5.56796 6.25964 5.56796 6.11298 5.57819 5.96724C5.56182 4.85812 6.04163 3.78842 6.90919 2.99737Z" fill="#E65726"/>
</svg>
